{
    "abilities": {
        "ability1": {
            "description": "Throws energy blades forward a limited distance, dealing 200 damage.",
            "name": "Crossblade"
        },
        "ability2": {
            "description": "Unleashes a shockwave, extending directly ahead of Rath, dealing 133 damage and knocking targets into the air.",
            "name": "Catalytic Smash"
        },
        "passive": {
            "description": "When Rath damages an enemy's health, he steals health worth 8% of the damage from melee attacks and 10% of the damage from skills.",
            "name": "Genetic Syphon"
        },
        "primary": {
            "description": "Rath's primary melee attack can be chained multiple times for a quick combo, while his secondary sword sweep deals area of effect damage.",
            "name": "Axiom and Praxis"
        },
        "talent": {
            "description": "Rath's ceremonial Jennerit armor is sturdy enough to absorb plenty of damage, but light enough to preserve his speed and mobility.",
            "name": "Bladekeeper's Vestment"
        },
        "ultimate": {
            "description": "After a breif wind-up, initiates a whirlwind attack lasting 4 seoncds, dealing 83 damage per hit to enemies in range.",
            "name": "Dreadwind"
        }
    },
    "characteristics": [
        "agile",
        "assassin",
        "easy"
    ],
    "faction": "Jennerit",
    "helixTalents": {
        "1": [
            {
                "affects": "ability1",
                "description": "Crossblade slows enemies on impact.",
                "name": "Slowing Strike",
                "summary": "+3 seconds Slow Duration"
            },
            {
                "affects": "ability2",
                "description": "Catalytic Smash no longer produces a shockwave that knocks targets into the air, but stuns enemies on impact if they have recently been hit by Crossblade.",
                "name": "Concussive Smash"
            },
            {
                "affects": "ability2",
                "description": "Catalytic Smash's shockwave is shortened, but spreads out to the left and right.",
                "name": "Waveform Smash"
            }
        ],
        "2": [
            {
                "affects": "ability1",
                "description": "When Crossblade damages an enemy's shield, Rath's shield recharges the amount of damage dealt.",
                "name": "Shield Syphon",
                "summary": "+100% Shield Restored on Hit"
            },
            {
                "affects": "ability1",
                "description": "A portion of damage dealt by Crossblade bypasses enemy shields.",
                "name": "Eviscerating Blade",
                "summary": "+60% Shield Penetration"
            },
            {
                "affects": "ability1",
                "description": "When a Crossblade is destroyed, a new Crossblade will spawn, moving towards Rath and dealing half damage to enemies.",
                "name": "Parabolic Blade"
            }
        ],
        "3": [
            {
                "affects": "talent",
                "description": "Allows Rath to double-jump.",
                "name": "Terror from Above"
            },
            {
                "affects": "primary",
                "description": "Rath's primary melee combo's finishing spin fires twice at the end of the combo.",
                "name": "Spin to Win"
            }
        ],
        "4": [
            {
                "affects": "ability2",
                "description": "When Rath attacks with Catalytic Smash, he will leap forward before he smashes.",
                "name": "Crimson Fastness"
            },
            {
                "affects": "ability2",
                "description": "Catalytic Smash silences enemies on impact.",
                "name": "Catalytic Flash",
                "summary": "+3 seconds Silence Duration"
            }
        ],
        "5": [
            {
                "affects": "passive",
                "description": "Genetic Syphon steals additional health when a skill deals damage to an enemy.",
                "name": "Skillful Syphoning",
                "summary": "+20% Life Steal"
            },
            {
                "affects": "passive",
                "description": "Greatly increases Genetic Syphon life-stealing properties for his melee attacks, but removes the effect from his skills.",
                "name": "Swordman's Salve"
            },
            {
                "affects": "passive",
                "description": "Genetic Syphon steals additional health when attacking enemies with melee strikes.",
                "name": "Not a Vampire",
                "summary": "i +11% Life Steal"
            }
        ],
        "6": [
            {
                "affects": "ability1",
                "description": "Increases Crossblade's base damage.",
                "name": "Brutal Blades",
                "summary": "+15% Damage"
            },
            {
                "affects": "ability2",
                "description": "Doubles the shockwave length of Catalytic Smash.",
                "name": "Catastrophic Smash"
            }
        ],
        "7": [
            {
                "affects": "talent",
                "description": "When Rath's shield is broken, movement speed is increased for a short time.",
                "name": "Evasive Maneuvers",
                "summary": "+30% Movement Speed for 6 seconds"
            },
            {
                "affects": "primary",
                "description": "Rath's primary melee combo finishing spin slows enemies.",
                "name": "Spin to Slow",
                "summary": "+1 Seconds Slow Duration"
            },
            {
                "affects": "primary",
                "description": "Increases base damage of all melee strikes.",
                "name": "To the Point",
                "summary": "+18% Damage"
            }
        ],
        "8": [
            {
                "affects": "ability1",
                "description": "Doubles the effective range of Crossblade.",
                "name": "Energetic Projection"
            },
            {
                "affects": "ability1",
                "description": "Reduces Crossblade's cooldown.",
                "name": "Quick Cross",
                "summary": "-20% Cooldown Time"
            }
        ],
        "9": [
            {
                "affects": "ability2",
                "description": "Enemies hit by Catalytic Smash will take more damage from Crossblade for a short time.",
                "name": "Softened Target",
                "summary": "+25% Damage for 4 seconds"
            },
            {
                "affects": "ability2",
                "description": "Killing an enemy with Catalytic Smash reduces Dreadwind's cooldown.",
                "name": "Zealous Smash",
                "summary": "-3 seconds per kill"
            }
        ],
        "10": [
            {
                "affects": "ultimate",
                "description": "Grants a movement speed boost to Rath while Dreadwind is active.",
                "name": "Dreadheart",
                "summary": "+30% Movement Speed"
            },
            {
                "affects": "ultimate",
                "description": "Dreadwind generates an overshield upon activation.",
                "name": "Unstoppable Assault",
                "summary": "+225 Overshield for 4 Seconds"
            },
            {
                "affects": "ultimate",
                "description": "Damage dealt by Dreadwind is increased while Rath's shield is broken.",
                "name": "Desperate Assault",
                "summary": "+45% Damage"
            }
        ],
        "titles": [
            "Assassin",
            "Swordsman"
        ]
    },
    "name": "Rath",
    "role": "Attacker"
}
